<?xml version="1.0" encoding="UTF-8"?>
<svg width="16px" height="16px" viewBox="0 0 16 16" version="1.1" xmlns="http://www.w3.org/2000/svg" xmlns:xlink="http://www.w3.org/1999/xlink">
    <!-- Generator: Sketch 48.2 (47327) - http://www.bohemiancoding.com/sketch -->
    <title>icon/16px/add-comment-16px</title>
    <desc>Created with Sketch.</desc>
    <defs>
        <path d="M13.3535628,3.4112319 L14.1254104,3.4112319 C14.5438996,3.4112319 14.8831521,3.75069736 14.8831521,4.17602658 C14.8831521,4.59841103 14.5382487,4.94082127 14.1254104,4.94082127 L13.3535628,4.94082127 L13.3535628,5.71266891 C13.3535628,6.13115811 13.0140973,6.47041063 12.5887681,6.47041063 C12.1663837,6.47041063 11.8239734,6.12550721 11.8239734,5.71266891 L11.8239734,4.94082127 L11.0521258,4.94082127 C10.6336366,4.94082127 10.294384,4.60135581 10.294384,4.17602658 C10.294384,3.75364214 10.6392875,3.4112319 11.0521258,3.4112319 L11.8239734,3.4112319 L11.8239734,2.63938426 C11.8239734,2.22089506 12.1634389,1.88164254 12.5887681,1.88164254 C13.0111525,1.88164254 13.3535628,2.22654596 13.3535628,2.63938426 L13.3535628,3.4112319 Z M9.52958937,2.02459231 L9.52958937,3.58842257 C9.04484204,3.47452912 8.5315115,3.41333798 8.00038195,3.41333798 C5.04713117,3.41333798 2.64465478,5.30421601 2.64465478,7.62779801 C2.64465478,9.95138 5.04713117,11.842258 8.00038195,11.842258 C10.9528688,11.842258 13.3553452,9.95138 13.3553452,7.62779801 C13.3553452,7.49543991 13.3475497,7.36448584 13.3323011,7.23520532 L14.867261,7.23520532 C14.8777978,7.36494995 14.8831521,7.49586202 14.8831521,7.62779801 C14.8831521,8.97798754 14.3178636,10.2194267 13.3797901,11.2012435 L13.4080546,11.1859265 C12.7984596,11.8407263 13.9939685,13.5692446 13.9939685,13.5692446 L13.9939685,13.5700105 L13.9939685,13.5707763 C14.01383,13.6174931 14.0245247,13.6688049 14.0245247,13.72318 C14.0245247,13.9414466 13.8488269,14.1183575 13.6311144,14.1183575 C13.586808,14.1183575 13.5455572,14.1061039 13.5058342,14.0930845 L13.5035425,14.095382 C12.7755425,13.9828024 11.7931626,13.562352 11.0262036,12.7804215 C10.1110472,13.1564527 9.08665268,13.3739535 8.00038195,13.3739535 C4.20454565,13.3739535 1.11684785,10.79611 1.11684785,7.62779801 C1.11684785,4.45948597 4.20454565,1.88164254 8.00038195,1.88164254 C8.52578085,1.88164254 9.03762199,1.93105024 9.52958937,2.02459231 Z" id="path-1"></path>
    </defs>
    <g id="Symbols" stroke="none" stroke-width="1" fill="none" fill-rule="evenodd">
        <g id="icon/16px/add-comment">
            <mask id="mask-2" fill="white">
                <use xlink:href="#path-1"></use>
            </mask>
            <use id="add-comment-small" fill="#42526E" xlink:href="#path-1"></use>
        </g>
    </g>
</svg>