<?xml version="1.0" encoding="UTF-8"?>
<svg width="16px" height="16px" viewBox="0 0 16 16" version="1.1" xmlns="http://www.w3.org/2000/svg" xmlns:xlink="http://www.w3.org/1999/xlink">
    <!-- Generator: Sketch 48.2 (47327) - http://www.bohemiancoding.com/sketch -->
    <title>icon/16px/addon-16px</title>
    <desc>Created with Sketch.</desc>
    <defs>
        <path d="M2.98042222,3.79802329 L6.95746818,1.44583497 C7.55749479,1.09095459 8.4445441,1.09216048 9.04253182,1.44583497 L13.0195778,3.79802329 C13.6196044,4.15290366 14.0621096,4.9404627 14.0621096,5.64781168 L14.0621096,10.3521883 C14.0621096,11.0619491 13.6175655,11.8483022 13.0195778,12.2019767 L9.04253182,14.554165 C8.44250521,14.9090454 7.5554559,14.9078395 6.95746818,14.554165 L2.98042222,12.2019767 C2.38039561,11.8470963 1.9378904,11.0595373 1.9378904,10.3521883 L1.9378904,5.64781168 C1.9378904,4.93805093 2.3824345,4.15169778 2.98042222,3.79802329 Z M8.27790591,2.80252846 C8.15240197,2.72830028 7.84829702,2.72788687 7.72209409,2.80252846 L3.74504813,5.15471678 C3.61954419,5.22894496 3.46714222,5.4985285 3.46714222,5.64781168 L3.46714222,10.3521883 C3.46714222,10.5006447 3.6188452,10.7706416 3.74504813,10.8452832 L7.72209409,13.1974715 C7.84759803,13.2716997 8.15170298,13.2721131 8.27790591,13.1974715 L12.2549519,10.8452832 C12.3804558,10.771055 12.5328578,10.5014715 12.5328578,10.3521883 L12.5328578,5.64781168 C12.5328578,5.49935532 12.3811548,5.22935837 12.2549519,5.15471678 L8.27790591,2.80252846 Z M8,11.0310548 C6.32599466,11.0310548 4.9689452,9.67400534 4.9689452,8 C4.9689452,6.32599466 6.32599466,4.9689452 8,4.9689452 C9.67400534,4.9689452 11.0310548,6.32599466 11.0310548,8 C11.0310548,9.67400534 9.67400534,11.0310548 8,11.0310548 Z M8,9.5155274 C8.83700267,9.5155274 9.5155274,8.83700267 9.5155274,8 C9.5155274,7.16299733 8.83700267,6.4844726 8,6.4844726 C7.16299733,6.4844726 6.4844726,7.16299733 6.4844726,8 C6.4844726,8.83700267 7.16299733,9.5155274 8,9.5155274 Z" id="path-1"></path>
    </defs>
    <g id="Symbols" stroke="none" stroke-width="1" fill="none" fill-rule="evenodd">
        <g id="icon/16px/addon">
            <mask id="mask-2" fill="white">
                <use xlink:href="#path-1"></use>
            </mask>
            <use id="Combined-Shape" fill="#42526E" xlink:href="#path-1"></use>
        </g>
    </g>
</svg>