<?xml version="1.0" encoding="UTF-8"?>
<svg width="16px" height="16px" viewBox="0 0 16 16" version="1.1" xmlns="http://www.w3.org/2000/svg" xmlns:xlink="http://www.w3.org/1999/xlink">
    <!-- Generator: Sketch 48.2 (47327) - http://www.bohemiancoding.com/sketch -->
    <title>confluence/16px/advanced</title>
    <desc>Created with Sketch.</desc>
    <defs></defs>
    <g id="Editor-icons---v2" stroke="none" stroke-width="1" fill="none" fill-rule="evenodd">
        <g id="confluence/16px/advanced" fill="#42526E">
            <path d="M5.8,13 L5,15 L3,15 L3.7628866,13 L5.8,13 Z M4.90721649,10 L6.81443299,5 L9.18556701,5 L11.0927835,10 L9.1666667,10 L8,6.5 L6.8333333,10 L4.90721649,10 Z M12.2371134,13 L13,15 L11,15 L10.2,13 L12.2371134,13 Z M1,11 L15,11 L15,12 L1,12 L1,11 Z M14,1 L14,2 L12,2 L12,4 L14,4 L14,5 L11,5 L11,1 L14,1 Z M14,2 L15,2 L15,4 L14,4 L14,2 Z" id="Shape"></path>
        </g>
    </g>
</svg>