<?xml version="1.0" encoding="UTF-8"?>
<svg width="16px" height="16px" viewBox="0 0 16 16" version="1.1" xmlns="http://www.w3.org/2000/svg" xmlns:xlink="http://www.w3.org/1999/xlink">
    <!-- Generator: Sketch 48.2 (47327) - http://www.bohemiancoding.com/sketch -->
    <title>icon/16px/arrow-down-16px</title>
    <desc>Created with Sketch.</desc>
    <defs>
        <path d="M12,10.02175 C12,10.27775 11.902,10.53375 11.706,10.72975 L8.711,13.70775 C8.317,14.09775 7.681,14.09775 7.289,13.70775 L4.294,10.72975 C4.099,10.53275 4,10.27775 4,10.02075 C4,9.76675 4.099,9.51075 4.294,9.31475 C4.688,8.92475 5.323,8.92475 5.716,9.31475 L6.995,10.58575 L6.995,9.28875 L6.995,7.37775 L6.995,3.00075 C6.995,2.44775 7.445,1.99975 8,1.99975 C8.555,1.99975 9.005,2.44775 9.005,3.00075 L9.005,7.37775 L9.005,9.28875 L9.005,10.58575 L10.284,9.31475 C10.677,8.92475 11.313,8.92475 11.706,9.31475 C11.902,9.50975 12,9.76575 12,10.02175" id="path-1"></path>
    </defs>
    <g id="Symbols" stroke="none" stroke-width="1" fill="none" fill-rule="evenodd">
        <g id="icon/16px/arrow-down">
            <mask id="mask-2" fill="white">
                <use xlink:href="#path-1"></use>
            </mask>
            <use id="arrow-down-small" fill="#42526E" xlink:href="#path-1"></use>
        </g>
    </g>
</svg>