<?xml version="1.0" encoding="UTF-8"?>
<svg width="16px" height="16px" viewBox="0 0 16 16" version="1.1" xmlns="http://www.w3.org/2000/svg" xmlns:xlink="http://www.w3.org/1999/xlink">
    <!-- Generator: Sketch 48.2 (47327) - http://www.bohemiancoding.com/sketch -->
    <title>icon/16px/arrow-up-16px</title>
    <desc>Created with Sketch.</desc>
    <defs>
        <path d="M4,5.97825 C4,5.72225 4.098,5.46625 4.294,5.27025 L7.289,2.29225 C7.683,1.90225 8.319,1.90225 8.711,2.29225 L11.706,5.27025 C11.901,5.46725 12,5.72225 12,5.97925 C12,6.23325 11.901,6.48925 11.706,6.68525 C11.312,7.07525 10.677,7.07525 10.284,6.68525 L9.005,5.41425 L9.005,6.71125 L9.005,8.62225 L9.005,12.99925 C9.005,13.55225 8.555,14.00025 8,14.00025 C7.445,14.00025 6.995,13.55225 6.995,12.99925 L6.995,8.62225 L6.995,6.71125 L6.995,5.41425 L5.716,6.68525 C5.323,7.07525 4.687,7.07525 4.294,6.68525 C4.098,6.49025 4,6.23425 4,5.97825" id="path-1"></path>
    </defs>
    <g id="Symbols" stroke="none" stroke-width="1" fill="none" fill-rule="evenodd">
        <g id="icon/16px/arrow-up">
            <mask id="mask-2" fill="white">
                <use xlink:href="#path-1"></use>
            </mask>
            <use id="arrow-up-small" fill="#42526E" xlink:href="#path-1"></use>
        </g>
    </g>
</svg>