<?xml version="1.0" encoding="UTF-8"?>
<svg width="16px" height="16px" viewBox="0 0 16 16" version="1.1" xmlns="http://www.w3.org/2000/svg" xmlns:xlink="http://www.w3.org/1999/xlink">
    <!-- Generator: Sketch 48.2 (47327) - http://www.bohemiancoding.com/sketch -->
    <title>icon/16px/chevron-double-right-16px</title>
    <desc>Created with Sketch.</desc>
    <defs>
        <path d="M4.712,4.29126 C4.32,3.90326 3.685,3.90326 3.294,4.29126 C2.902,4.68026 2.902,5.31026 3.294,5.69826 L5.621,8.00526 L3.303,10.30226 C2.912,10.69026 2.912,11.32026 3.303,11.70826 C3.695,12.09726 4.331,12.09726 4.722,11.70826 L7.677,8.77926 C8.107,8.35326 8.107,7.66726 7.677,7.23126 L4.712,4.29126 Z M12.677,8.77926 L9.722,11.70826 C9.331,12.09726 8.695,12.09726 8.303,11.70826 C7.912,11.32026 7.912,10.69026 8.303,10.30226 L10.621,8.00526 L8.294,5.69826 C7.902,5.31026 7.902,4.68026 8.294,4.29126 C8.685,3.90326 9.32,3.90326 9.712,4.29126 L12.677,7.23126 C13.107,7.66726 13.107,8.35326 12.677,8.77926 Z" id="path-1"></path>
    </defs>
    <g id="Symbols" stroke="none" stroke-width="1" fill="none" fill-rule="evenodd">
        <g id="icon/16px/chevron-double-right">
            <mask id="mask-2" fill="white">
                <use xlink:href="#path-1"></use>
            </mask>
            <use id="chevron-double-right-small" fill="#3F4F71" xlink:href="#path-1"></use>
        </g>
    </g>
</svg>