<?xml version="1.0" encoding="UTF-8"?>
<svg width="16px" height="16px" viewBox="0 0 16 16" version="1.1" xmlns="http://www.w3.org/2000/svg" xmlns:xlink="http://www.w3.org/1999/xlink">
    <!-- Generator: Sketch 48.2 (47327) - http://www.bohemiancoding.com/sketch -->
    <title>bitbucket/16px/clone-small-16px</title>
    <desc>Created with Sketch.</desc>
    <defs>
        <path d="M7.24625288,5.42668983 L7.24625288,1.97223098 C7.24625288,1.5547285 7.58081471,1.21627588 8,1.21627588 C8.41628304,1.21627588 8.75374712,1.56246406 8.75374712,1.97223098 L8.75374712,5.42631266 L8.9744066,5.20548254 C9.26912172,4.91152116 9.7454899,4.91152116 10.040205,5.20548254 C10.3349202,5.50019766 10.3349202,5.97807334 10.040205,6.27203472 L8.53647952,7.77651398 C8.38573009,7.92650966 8.19277083,8.00113062 8.00056531,8.00113062 C7.80609855,8.00113062 7.61238554,7.92500216 7.46389736,7.77651398 L5.95866435,6.27203472 C5.66545672,5.97807334 5.66545672,5.50019766 5.95866435,5.20548254 C6.25337948,4.91152116 6.73125515,4.91152116 7.02521653,5.20548254 L7.24625288,5.42668983 Z M9.50749425,13.2762299 L9.51444533,13.2762299 C9.9268894,13.2762299 10.2612414,13.6107917 10.2612414,14.029977 L10.2612414,14.7837241 L5.73875863,14.7837241 L5.73875863,14.029977 C5.73875863,13.613694 6.07867987,13.2762299 6.48555467,13.2762299 L6.49250575,13.2762299 L6.49250575,11.7687356 L9.50749425,11.7687356 L9.50749425,13.2762299 Z M4.9850115,1.970023 L4.9850115,3.47751725 L2.72377013,3.47751725 L2.72377013,9.50749425 L13.2762299,9.50749425 L13.2762299,3.47751725 L11.0149885,3.47751725 L11.0149885,1.970023 L12.7818004,1.970023 C13.8874323,1.970023 14.7837241,2.87035667 14.7837241,3.977394 L14.7837241,9.0076175 C14.7837241,10.1162579 13.8935259,11.0149885 12.7818004,11.0149885 L3.21819959,11.0149885 C2.11256765,11.0149885 1.21627588,10.1146548 1.21627588,9.0076175 L1.21627588,3.977394 C1.21627588,2.86875361 2.10647405,1.970023 3.21819959,1.970023 L4.9850115,1.970023 Z" id="path-1"></path>
    </defs>
    <g id="Symbols" stroke="none" stroke-width="1" fill="none" fill-rule="evenodd">
        <g id="bitbucket/16px/clone-small">
            <mask id="mask-2" fill="white">
                <use xlink:href="#path-1"></use>
            </mask>
            <use id="clone" fill="#172B4D" fill-rule="nonzero" xlink:href="#path-1"></use>
        </g>
    </g>
</svg>