<?xml version="1.0" encoding="UTF-8"?>
<svg width="16px" height="16px" viewBox="0 0 16 16" version="1.1" xmlns="http://www.w3.org/2000/svg" xmlns:xlink="http://www.w3.org/1999/xlink">
    <!-- Generator: Sketch 48.2 (47327) - http://www.bohemiancoding.com/sketch -->
    <title>icon/16px/cross-16px</title>
    <desc>Created with Sketch.</desc>
    <defs>
        <path d="M12.949687,12.9496866 C12.559687,13.3396866 11.927687,13.3426866 11.540687,12.9546866 L7.99968696,9.41368659 L4.46968696,12.9446866 C4.07568696,13.3376866 3.44368696,13.3426866 3.05068696,12.9496866 C2.65968696,12.5586866 2.66068696,11.9246866 3.05468696,11.5306866 L6.58568696,7.99968659 L3.04568696,4.45968659 C2.65768696,4.07268659 2.65668696,3.44468659 3.05068696,3.05068659 C3.44068696,2.65968659 4.07268696,2.65768659 4.45968696,3.04568659 L7.99968696,6.58568659 L11.530687,3.05468659 C11.923687,2.66168659 12.556687,2.65768659 12.949687,3.05068659 C13.340687,3.44068659 13.338687,4.07568659 12.944687,4.46968659 L9.41368696,7.99968659 L12.954687,11.5406866 C13.342687,11.9276866 13.342687,12.5566866 12.949687,12.9496866" id="path-1"></path>
    </defs>
    <g id="Symbols" stroke="none" stroke-width="1" fill="none" fill-rule="evenodd">
        <g id="icon/16px/cross">
            <mask id="mask-2" fill="white">
                <use xlink:href="#path-1"></use>
            </mask>
            <use id="cross-small" fill="#42526E" xlink:href="#path-1"></use>
        </g>
    </g>
</svg>