<?xml version="1.0" encoding="UTF-8"?>
<svg width="16px" height="16px" viewBox="0 0 16 16" version="1.1" xmlns="http://www.w3.org/2000/svg" xmlns:xlink="http://www.w3.org/1999/xlink">
    <!-- Generator: Sketch 48.2 (47327) - http://www.bohemiancoding.com/sketch -->
    <title>icon/16px/documents-16px</title>
    <desc>Created with Sketch.</desc>
    <defs>
        <path d="M0.5,5 L0.5,11 C0.5,12.104 1.396,13 2.5,13 L3.5,13 L3.5,11 L2.5,11 L2.5,5 L3.5,5 L3.5,3 L2.5,3 C1.396,3 0.5,3.896 0.5,5 M10.5,5 L10.5,3 L6.5,3 L6.5,13 L13.5,13 L13.5,7 L15.5,7 L15.5,13 C15.5,14.1 14.6,15 13.5,15 L6.5,15 C5.4,15 4.5,14.1 4.5,13 L4.5,3 C4.5,1.9 5.4,1 6.5,1 L10.671,1 C11.202,1 11.711,1.211 12.086,1.586 L14.914,4.414 C15.289,4.789 15.5,5.298 15.5,5.829 L15.5,6 L11.5,6 C10.95,6 10.5,5.55 10.5,5" id="path-1"></path>
    </defs>
    <g id="Symbols" stroke="none" stroke-width="1" fill="none" fill-rule="evenodd">
        <g id="icon/16px/documents">
            <mask id="mask-2" fill="white">
                <use xlink:href="#path-1"></use>
            </mask>
            <use id="documents" fill="#42526E" xlink:href="#path-1"></use>
        </g>
    </g>
</svg>