<?xml version="1.0" encoding="UTF-8"?>
<svg width="16px" height="16px" viewBox="0 0 16 16" version="1.1" xmlns="http://www.w3.org/2000/svg" xmlns:xlink="http://www.w3.org/1999/xlink">
    <!-- Generator: Sketch 48.2 (47327) - http://www.bohemiancoding.com/sketch -->
    <title>bamboo/16px/failed-build-16px</title>
    <desc>Created with Sketch.</desc>
    <defs>
        <path d="M9,4.9995 L9,7.9995 C9,8.5515 8.552,8.9995 8,8.9995 C7.448,8.9995 7,8.5515 7,7.9995 L7,4.9995 C7,4.4475 7.448,3.9995 8,3.9995 C8.552,3.9995 9,4.4475 9,4.9995 M9,10.9995 C9,11.5525 8.552,11.9995 8,11.9995 C7.448,11.9995 7,11.5525 7,10.9995 C7,10.4475 7.448,9.9995 8,9.9995 C8.552,9.9995 9,10.4475 9,10.9995 M8,13.6 C4.9123,13.6 2.4,11.0877 2.4,8 C2.4,4.9123 4.9123,2.4 8,2.4 C11.0877,2.4 13.6,4.9123 13.6,8 C13.6,11.0877 11.0877,13.6 8,13.6 M8,1 C4.1339,1 1,4.1339 1,8 C1,11.8661 4.1339,15 8,15 C11.8661,15 15,11.8661 15,8 C15,4.1339 11.8661,1 8,1" id="path-1"></path>
    </defs>
    <g id="Symbols" stroke="none" stroke-width="1" fill="none" fill-rule="evenodd">
        <g id="bamboo/16px/failed-build">
            <mask id="mask-2" fill="white">
                <use xlink:href="#path-1"></use>
            </mask>
            <use id="failed-build" fill="#172B4D" xlink:href="#path-1"></use>
        </g>
    </g>
</svg>