<?xml version="1.0" encoding="UTF-8"?>
<svg width="16px" height="16px" viewBox="0 0 16 16" version="1.1" xmlns="http://www.w3.org/2000/svg" xmlns:xlink="http://www.w3.org/1999/xlink">
    <!-- Generator: Sketch 48.2 (47327) - http://www.bohemiancoding.com/sketch -->
    <title>icon/16px/folder-filled-16px</title>
    <desc>Created with Sketch.</desc>
    <defs>
        <path d="M13,4 L9.75,4 L8.591,2.681 C8.211,2.248 7.664,2 7.088,2 L3,2 C1.9,2 1,2.9 1,4 L1,12 C1,13.1 1.9,14 3,14 L13,14 C14.1,14 15,13.1 15,12 L15,6 C15,4.9 14.1,4 13,4" id="path-1"></path>
    </defs>
    <g id="Symbols" stroke="none" stroke-width="1" fill="none" fill-rule="evenodd">
        <g id="icon/16px/folder-filled">
            <mask id="mask-2" fill="white">
                <use xlink:href="#path-1"></use>
            </mask>
            <use id="folder-filled" fill="#42526E" xlink:href="#path-1"></use>
        </g>
    </g>
</svg>