<?xml version="1.0" encoding="UTF-8"?>
<svg width="16px" height="16px" viewBox="0 0 16 16" version="1.1" xmlns="http://www.w3.org/2000/svg" xmlns:xlink="http://www.w3.org/1999/xlink">
    <!-- Generator: Sketch 48.2 (47327) - http://www.bohemiancoding.com/sketch -->
    <title>icon/16px/google-drive-16px</title>
    <desc>Created with Sketch.</desc>
    <defs>
        <path d="M10.5643377,2.14852501 L6.00417792,2.19425658 L9.93805589,9.00777943 L14.4982157,8.96156648 L10.5643377,2.14852501 Z M1.2712009,9.76259107 L3.59051368,13.6887669 L7.52439165,6.87524402 L5.20507887,2.94906821 L1.2712009,9.76259107 Z M6.86104316,9.880049 L4.62067752,13.851475 L12.4884335,13.851475 L14.7287991,9.880049 L6.86104316,9.880049 Z" id="path-1"></path>
    </defs>
    <g id="Symbols" stroke="none" stroke-width="1" fill="none" fill-rule="evenodd">
        <g id="icon/16px/google-drive">
            <mask id="mask-2" fill="white">
                <use xlink:href="#path-1"></use>
            </mask>
            <use id="GDrive-icon" fill="#3F4F71" xlink:href="#path-1"></use>
        </g>
    </g>
</svg>