<?xml version="1.0" encoding="UTF-8"?>
<svg width="16px" height="16px" viewBox="0 0 16 16" version="1.1" xmlns="http://www.w3.org/2000/svg" xmlns:xlink="http://www.w3.org/1999/xlink">
    <!-- Generator: Sketch 48.2 (47327) - http://www.bohemiancoding.com/sketch -->
    <title>icon/16px/highlights-16px</title>
    <desc>Created with Sketch.</desc>
    <defs>
        <path d="M13.4444444,4.15995478 C14.3349523,4.3603829 15,5.15437949 15,6.10830116 L15,13.0028099 C15,14.1058276 14.1089165,15 13.0028099,15 L6.10830116,15 C5.15670634,15 4.36055183,14.33678 4.15989258,13.4444444 L12.4470994,13.4444444 C13.0015401,13.4444444 13.4444444,12.9979179 13.4444444,12.4470994 L13.4444444,4.15995478 Z M1,2.99719005 C1,1.89417244 1.89108348,1 2.99719005,1 L9.89169884,1 C10.9947164,1 11.8888889,1.89108348 11.8888889,2.99719005 L11.8888889,9.89169884 C11.8888889,10.9947164 10.9978054,11.8888889 9.89169884,11.8888889 L2.99719005,11.8888889 C1.89417244,11.8888889 1,10.9978054 1,9.89169884 L1,2.99719005 Z M2.55555556,2.55555556 L2.55555556,10.3333333 L10.3333333,10.3333333 L10.3333333,2.55555556 L2.55555556,2.55555556 Z M6.11569628,3.93224457 C6.17779438,3.79979145 6.30852721,3.72222222 6.44470724,3.72222222 C6.49663722,3.72222222 6.5492935,3.733199 6.59904461,3.75698202 C6.67566857,3.79320539 6.73704037,3.85540713 6.7729919,3.93224457 L7.40668298,5.28824254 L8.85818054,5.51107113 C9.05609552,5.54144021 9.1926387,5.72804544 9.16249752,5.9278228 C9.15087682,6.00356256 9.11601473,6.07381394 9.06263216,6.12869783 L8.00151736,7.22125313 L8.24845715,8.74190276 C8.28077721,8.94094833 8.14677606,9.12938302 7.94849793,9.16194746 C7.86860565,9.17511959 7.78580819,9.16048389 7.71463142,9.12096749 L6.44470724,8.41625835 L5.17405676,9.12096749 C4.99829373,9.21866081 4.77750051,9.15426371 4.68054033,8.9771717 C4.64132048,8.90545675 4.62715775,8.82239913 4.64059418,8.74190276 L4.88717083,7.22125313 L3.82605602,6.12869783 C3.68551823,5.98417026 3.68806026,5.75256024 3.83114008,5.6113257 C3.88561209,5.55790538 3.95533627,5.5224138 4.03050764,5.51107113 L5.4820052,5.28824254 L6.11569628,3.93224457 Z" id="path-1"></path>
    </defs>
    <g id="Symbols" stroke="none" stroke-width="1" fill="none" fill-rule="evenodd">
        <g id="icon/16px/highlights">
            <mask id="mask-2" fill="white">
                <use xlink:href="#path-1"></use>
            </mask>
            <use id="Combined-Shape" fill="#42526E" fill-rule="nonzero" xlink:href="#path-1"></use>
        </g>
    </g>
</svg>