<?xml version="1.0" encoding="UTF-8"?>
<svg width="16px" height="16px" viewBox="0 0 16 16" version="1.1" xmlns="http://www.w3.org/2000/svg" xmlns:xlink="http://www.w3.org/1999/xlink">
    <!-- Generator: Sketch 48.2 (47327) - http://www.bohemiancoding.com/sketch -->
    <title>icon/16px/image-border-16px</title>
    <desc>Created with Sketch.</desc>
    <defs>
        <path d="M1,11.8890617 L2.55546914,11.8890617 L2.55546914,13.4445309 L4.11093828,13.4445309 L4.11093828,15 L1.4588634,15 C1.20376646,15 1,14.7946781 1,14.5411366 L1,11.8890617 Z M13.4437531,11.8890617 L14.9992223,11.8890617 L14.9992223,14.5411366 C14.9992223,14.7946781 14.7954558,15 14.5403589,15 L11.888284,15 L11.888284,13.4445309 L13.4437531,13.4445309 L13.4437531,11.8890617 Z M1.4588634,1.00077773 L4.11093828,1.00077773 L4.11093828,2.55624688 L2.55546914,2.55624688 L2.55546914,4.11171602 L1,4.11171602 L1,1.45964113 C1,1.20454419 1.20532193,1.00077773 1.4588634,1.00077773 Z M11.888284,1.00077773 L14.5403589,1.00077773 C14.7954558,1.00077773 14.9992223,1.20609966 14.9992223,1.45964113 L14.9992223,4.11171602 L13.4437531,4.11171602 L13.4437531,2.55624688 L11.888284,2.55624688 L11.888284,1.00077773 Z M9.55508027,2.55624688 L9.55508027,1 L11.1105494,1 L11.1105494,2.55624688 L9.55508027,2.55624688 Z M4.88867285,2.55624688 L4.88867285,1 L8.7773457,1 L8.7773457,2.55624688 L4.88867285,2.55624688 Z M13.4437531,6.44491973 L13.4437531,4.88945059 L15,4.88945059 L15,6.44491973 L13.4437531,6.44491973 Z M1,8.00038887 L1,4.88945059 L2.55546914,4.88945059 L2.55546914,8.00038887 L1,8.00038887 Z M13.4437531,11.1113271 L13.4437531,7.2226543 L15,7.2226543 L15,11.1113271 L13.4437531,11.1113271 Z M1,11.1113271 L1,8.77812344 L2.55546914,8.77812344 L2.55546914,11.1113271 L1,11.1113271 Z M7.99961113,15 L7.99961113,13.4445309 L11.1105494,13.4445309 L11.1105494,15 L7.99961113,15 Z M4.88867285,15 L4.88867285,13.4445309 L7.22187656,13.4445309 L7.22187656,15 L4.88867285,15 Z" id="path-1"></path>
    </defs>
    <g id="Symbols" stroke="none" stroke-width="1" fill="none" fill-rule="evenodd">
        <g id="icon/16px/image-border">
            <mask id="mask-2" fill="white">
                <use xlink:href="#path-1"></use>
            </mask>
            <use id="Combined-Shape" fill="#42526E" xlink:href="#path-1"></use>
        </g>
    </g>
</svg>