<?xml version="1.0" encoding="UTF-8"?>
<svg width="16px" height="16px" viewBox="0 0 16 16" version="1.1" xmlns="http://www.w3.org/2000/svg" xmlns:xlink="http://www.w3.org/1999/xlink">
    <!-- Generator: Sketch 48.2 (47327) - http://www.bohemiancoding.com/sketch -->
    <title>icon/16px/issue-16px</title>
    <desc>Created with Sketch.</desc>
    <defs>
        <path d="M3.27771575,3.51847717 L12.7222842,3.51847717 C13.8268537,3.51847717 14.7222842,4.41390767 14.7222842,5.51847717 L14.7222842,10.4815228 C14.7222842,11.5860923 13.8268537,12.4815228 12.7222842,12.4815228 L3.27771575,12.4815228 C2.17314625,12.4815228 1.27771575,11.5860923 1.27771575,10.4815228 L1.27771575,5.51847717 C1.27771575,4.41390767 2.17314625,3.51847717 3.27771575,3.51847717 Z M2.77155669,5.01231811 L2.77155669,10.9876819 L13.2284433,10.9876819 L13.2284433,5.01231811 L2.77155669,5.01231811 Z M7.00971243,9.74115514 L5.9600421,8.69148481 C5.69230408,8.42374679 5.69230408,7.98918739 5.9600421,7.72076287 C6.22846662,7.45302485 6.66302602,7.45302485 6.93076404,7.72076287 L7.49438689,8.28438572 L9.06854913,6.70816396 C9.33628714,6.43836642 9.77221956,6.43973943 10.0392711,6.70679094 C10.3076956,6.97452896 10.3076956,7.40908836 10.0406441,7.67751288 L7.98112087,9.74046863 C7.71269635,10.0095797 7.27813695,10.0095797 7.00971243,9.74115514 Z" id="path-1"></path>
    </defs>
    <g id="Symbols" stroke="none" stroke-width="1" fill="none" fill-rule="evenodd">
        <g id="icon/16px/issue">
            <mask id="mask-2" fill="white">
                <use xlink:href="#path-1"></use>
            </mask>
            <use id="Combined-Shape" fill="#41516F" xlink:href="#path-1"></use>
        </g>
    </g>
</svg>