<?xml version="1.0" encoding="UTF-8"?>
<svg width="16px" height="16px" viewBox="0 0 16 16" version="1.1" xmlns="http://www.w3.org/2000/svg" xmlns:xlink="http://www.w3.org/1999/xlink">
    <!-- Generator: Sketch 48.2 (47327) - http://www.bohemiancoding.com/sketch -->
    <title>confluence/16px/left-side-bar</title>
    <desc>Created with Sketch.</desc>
    <defs></defs>
    <g id="Editor-icons---v2" stroke="none" stroke-width="1" fill="none" fill-rule="evenodd">
        <g id="confluence/16px/left-side-bar" fill="#42526E">
            <path d="M3,2 L4,2 C4.55228475,2 5,2.44771525 5,3 L5,13 C5,13.5522847 4.55228475,14 4,14 L3,14 C2.44771525,14 2,13.5522847 2,13 L2,3 C2,2.44771525 2.44771525,2 3,2 Z" id="Rectangle-16-Copy-5"></path>
            <path d="M8,2 L13,2 C13.5522847,2 14,2.44771525 14,3 L14,13 C14,13.5522847 13.5522847,14 13,14 L8,14 C7.44771525,14 7,13.5522847 7,13 L7,3 C7,2.44771525 7.44771525,2 8,2 Z" id="Rectangle-16-Copy-6"></path>
        </g>
    </g>
</svg>