<?xml version="1.0" encoding="UTF-8"?>
<svg width="16px" height="16px" viewBox="0 0 16 16" version="1.1" xmlns="http://www.w3.org/2000/svg" xmlns:xlink="http://www.w3.org/1999/xlink">
    <!-- Generator: Sketch 48.2 (47327) - http://www.bohemiancoding.com/sketch -->
    <title>confluence/16px/link</title>
    <desc>Created with Sketch.</desc>
    <defs></defs>
    <g id="Editor-icons---v2" stroke="none" stroke-width="1" fill="none" fill-rule="evenodd">
        <g id="confluence/16px/link" fill="#42526E" fill-rule="nonzero">
            <path d="M10.5552501,1.85 C11.4506928,1.85 12.3129807,2.19959854 12.9593579,2.84597573 C14.2885719,4.17623634 14.2892182,6.32520953 12.9593162,7.65406602 L11.8982406,8.71514148 L11.1953579,9.4170243 C9.86522485,10.7482038 7.71118756,10.7511151 6.38318413,9.42206602 C6.03157524,9.07045713 6.03157524,8.50034253 6.38300359,8.15011483 C6.73465349,7.79726476 7.30504729,7.79726476 7.65523855,8.14985642 C8.28101216,8.77471516 9.29509828,8.77301984 9.92318413,8.14493398 L11.6871841,6.38093398 C12.3133876,5.75473053 12.3128236,4.74570546 11.6861841,4.11906602 C11.0609041,3.49378601 10.0488788,3.4935034 9.42197931,4.12035249 L8.79865781,4.71702793 C8.44604903,5.06963672 7.87693491,5.06963672 7.52570724,4.71720909 C7.17391689,4.36661938 7.17391689,3.79650478 7.52786264,3.44260943 L8.15235317,2.8447655 C8.79880003,2.19893532 9.6597168,1.85 10.5552501,1.85 Z" id="Path"></path>
            <path d="M4.61018413,6.38693398 C5.25894794,5.73817018 6.12351514,5.387 7.02125015,5.387 C7.91626253,5.387 8.77769241,5.73631023 9.42331616,6.38193398 C9.77492505,6.73354287 9.77492505,7.30365747 9.4234967,7.65388517 C9.07184681,8.00673524 8.50145301,8.00673524 8.15126175,7.65414358 C7.52583403,7.02963023 6.51168868,7.03160822 5.88331616,7.65906602 L4.11931616,9.42306602 C3.49311271,10.0492695 3.49367673,11.0582945 4.12031616,11.684934 C4.74559617,12.310214 5.75762152,12.3104966 6.38440776,11.683756 L6.99601992,11.097059 C7.3486287,10.7444502 7.91774283,10.7444502 8.26897049,11.0968778 C8.62076084,11.4474675 8.62076084,12.0175821 8.26684027,12.3714534 L7.65435793,12.9580242 C6.32712163,14.2863064 4.17614755,14.285983 2.84718413,12.958066 C1.51791466,11.6287965 1.51726803,9.47875896 2.84713418,8.15098396 L3.90818413,7.08893398 L4.61018413,6.38693398 Z" id="Path"></path>
        </g>
    </g>
</svg>