<?xml version="1.0" encoding="UTF-8"?>
<svg width="16px" height="16px" viewBox="0 0 16 16" version="1.1" xmlns="http://www.w3.org/2000/svg" xmlns:xlink="http://www.w3.org/1999/xlink">
    <!-- Generator: Sketch 48.2 (47327) - http://www.bohemiancoding.com/sketch -->
    <title>icon/16px/marketplace-16px</title>
    <desc>Created with Sketch.</desc>
    <defs>
        <path d="M3.46062387,11.0262508 L12.5393761,11.0262508 L12.5393761,7.24343731 L14.0525015,7.24343731 L14.0525015,11.0262508 L14.0525015,12.9176575 C14.0525015,13.9622526 13.2013012,14.8090642 12.1610948,14.8090642 L3.83890522,14.8090642 C2.79431013,14.8090642 1.9474985,13.9695353 1.9474985,12.9176575 L1.9474985,11.0262508 L1.9474985,7.24343731 L3.46062387,7.24343731 L3.46062387,11.0262508 Z M14.8090642,4.97374925 C14.7030629,5.82687135 13.9813462,6.48687462 13.1067981,6.48687462 C12.2322501,6.48687462 11.5105334,5.82687135 11.4045321,4.97374925 C11.2985308,5.82687135 10.5768141,6.48687462 9.70226605,6.48687462 C8.82771803,6.48687462 8.10600127,5.82687135 8,4.97374925 C7.89399873,5.82687135 7.17228197,6.48687462 6.29773395,6.48687462 C5.42318593,6.48687462 4.70146918,5.82687135 4.5954679,4.97374925 C4.48946663,5.82687135 3.76774987,6.48687462 2.89320186,6.48687462 C2.01865384,6.48687462 1.29693708,5.82687135 1.19093581,4.97374925 L1.19093581,4.21718656 L2.36824962,1.86255893 C2.55371323,1.49163172 3.04447563,1.19093581 3.4658029,1.19093581 L12.5341971,1.19093581 C12.9548954,1.19093581 13.4465549,1.49216807 13.6317504,1.86255893 L14.8090642,4.21718656 L14.8090642,4.97374925 Z" id="path-1"></path>
    </defs>
    <g id="Symbols" stroke="none" stroke-width="1" fill="none" fill-rule="evenodd">
        <g id="icon/16px/marketplace">
            <mask id="mask-2" fill="white">
                <use xlink:href="#path-1"></use>
            </mask>
            <use id="Combined-Shape" fill="#42526E" xlink:href="#path-1"></use>
        </g>
    </g>
</svg>