<?xml version="1.0" encoding="UTF-8"?>
<svg width="16px" height="16px" viewBox="0 0 16 16" version="1.1" xmlns="http://www.w3.org/2000/svg" xmlns:xlink="http://www.w3.org/1999/xlink">
    <!-- Generator: Sketch 48.2 (47327) - http://www.bohemiancoding.com/sketch -->
    <title>icon/16px/open-16px</title>
    <desc>Created with Sketch.</desc>
    <defs>
        <path d="M6.639,3.793 C6.458,3.974 6.345,4.223 6.347,4.501 C6.35,5.054 6.799,5.504 7.352,5.506 L9.156,5.512 L8.239,6.428 L6.887,7.78 L3.792,10.875 C3.604,11.064 3.507,11.309 3.5,11.556 L3.5,11.608 C3.507,11.856 3.605,12.103 3.795,12.293 C3.884,12.382 3.985,12.451 4.094,12.5 L4.921,12.5 C5.027,12.452 5.126,12.384 5.213,12.296 L8.308,9.202 L9.66,7.849 L10.577,6.932 L10.582,8.736 C10.585,9.29 11.034,9.739 11.588,9.742 C11.865,9.741 12.116,9.63 12.295,9.451 C12.381,9.365 12.451,9.264 12.5,9.153 L12.5,4.137 C12.35,3.772 11.99,3.514 11.572,3.511 L7.347,3.5 C7.071,3.5 6.82,3.612 6.639,3.793 Z" id="path-1"></path>
    </defs>
    <g id="Symbols" stroke="none" stroke-width="1" fill="none" fill-rule="evenodd">
        <g id="icon/16px/open">
            <mask id="mask-2" fill="white">
                <use xlink:href="#path-1"></use>
            </mask>
            <use id="Clip-2" fill="#42526E" xlink:href="#path-1"></use>
        </g>
    </g>
</svg>