<?xml version="1.0" encoding="UTF-8"?>
<svg width="16px" height="16px" viewBox="0 0 16 16" version="1.1" xmlns="http://www.w3.org/2000/svg" xmlns:xlink="http://www.w3.org/1999/xlink">
    <!-- Generator: Sketch 48.2 (47327) - http://www.bohemiancoding.com/sketch -->
    <title>icon/16px/overview-16px</title>
    <desc>Created with Sketch.</desc>
    <defs>
        <path d="M1.91438627,3.4357897 L14.0856137,3.4357897 C14.5057377,3.4357897 14.8463154,3.77636746 14.8463154,4.19649142 C14.8463154,4.61661537 14.5057377,4.95719313 14.0856137,4.95719313 L1.91438627,4.95719313 C1.49426231,4.95719313 1.15368455,4.61661537 1.15368455,4.19649142 C1.15368455,3.77636746 1.49426231,3.4357897 1.91438627,3.4357897 Z M1.91438627,7.23929828 L9.51757855,7.23929828 C9.9377025,7.23929828 10.2782803,7.57987604 10.2782803,8 C10.2782803,8.42012396 9.9377025,8.76070172 9.51757855,8.76070172 L1.91438627,8.76070172 C1.49426231,8.76070172 1.15368455,8.42012396 1.15368455,8 C1.15368455,7.57987604 1.49426231,7.23929828 1.91438627,7.23929828 Z M1.91438627,11.0428069 L4.95528069,11.0428069 C5.37540465,11.0428069 5.71598241,11.3833846 5.71598241,11.8035086 C5.71598241,12.2236325 5.37540465,12.5642103 4.95528069,12.5642103 L1.91438627,12.5642103 C1.49426231,12.5642103 1.15368455,12.2236325 1.15368455,11.8035086 C1.15368455,11.3833846 1.49426231,11.0428069 1.91438627,11.0428069 Z" id="path-1"></path>
    </defs>
    <g id="Symbols" stroke="none" stroke-width="1" fill="none" fill-rule="evenodd">
        <g id="icon/16px/overview">
            <mask id="mask-2" fill="white">
                <use xlink:href="#path-1"></use>
            </mask>
            <use id="Combined-Shape" fill="#42526E" xlink:href="#path-1"></use>
        </g>
    </g>
</svg>