<?xml version="1.0" encoding="UTF-8"?>
<svg width="16px" height="16px" viewBox="0 0 16 16" version="1.1" xmlns="http://www.w3.org/2000/svg" xmlns:xlink="http://www.w3.org/1999/xlink">
    <!-- Generator: Sketch 48.2 (47327) - http://www.bohemiancoding.com/sketch -->
    <title>icon/16px/preferences-16px</title>
    <desc>Created with Sketch.</desc>
    <defs>
        <path d="M8.88076547,10.2758671 C9.18894437,9.39047123 10.03077,8.75534785 11.0213914,8.75534785 C12.0121153,8.75534785 12.8540125,9.39060257 13.1621129,10.2761418 C13.2025761,10.2694989 13.2441729,10.2660436 13.2866468,10.2660436 L14.043571,10.2660436 C14.4603028,10.2660436 14.7981307,10.6013159 14.7981307,11.0213914 C14.7981307,11.4385585 14.4637681,11.7767393 14.043571,11.7767393 L13.2866468,11.7767393 C13.2442337,11.7767393 13.202638,11.7732664 13.1621325,11.7665848 C12.8540481,12.6521533 12.0121362,13.287435 11.0213914,13.287435 C10.0307517,13.287435 9.1889134,12.6522882 8.88074846,11.7668668 C8.84103089,11.7733622 8.80025904,11.7767393 8.75868838,11.7767393 L1.95387667,11.7767393 C1.53855449,11.7767393 1.20186935,11.4414669 1.20186935,11.0213914 C1.20186935,10.6042243 1.537876,10.2660436 1.95387667,10.2660436 L8.75868838,10.2660436 C8.80025463,10.2660436 8.84103322,10.2694018 8.88076547,10.2758671 Z M2.83786753,4.2334152 C3.14595185,3.34784666 3.98786377,2.71256505 4.9786086,2.71256505 C5.96924826,2.71256505 6.8110866,3.34771179 7.11925154,4.23313319 C7.15896911,4.22663778 7.19974096,4.22326075 7.24131162,4.22326075 L14.0461233,4.22326075 C14.4614455,4.22326075 14.7981307,4.55853309 14.7981307,4.9786086 C14.7981307,5.3957757 14.462124,5.73395645 14.0461233,5.73395645 L7.24131162,5.73395645 C7.19974537,5.73395645 7.15896678,5.73059823 7.11923453,5.72413287 C6.81105563,6.60952877 5.96923003,7.24465215 4.9786086,7.24465215 C3.98788474,7.24465215 3.14598749,6.60939743 2.83788709,5.72385823 C2.79742391,5.73050115 2.75582706,5.73395645 2.71335321,5.73395645 L1.95642904,5.73395645 C1.53969723,5.73395645 1.20186935,5.39868411 1.20186935,4.9786086 C1.20186935,4.5614415 1.53623188,4.22326075 1.95642904,4.22326075 L2.71335321,4.22326075 C2.75576627,4.22326075 2.79736203,4.22673358 2.83786753,4.2334152 Z M5.73395645,4.9786086 C5.73395645,4.56111632 5.39610087,4.22326075 4.9786086,4.22326075 C4.56111632,4.22326075 4.22326075,4.56111632 4.22326075,4.9786086 C4.22326075,5.39610087 4.56111632,5.73395645 4.9786086,5.73395645 C5.39610087,5.73395645 5.73395645,5.39610087 5.73395645,4.9786086 Z M11.7767393,11.0213914 C11.7767393,10.6038991 11.4388837,10.2660436 11.0213914,10.2660436 C10.6038991,10.2660436 10.2660436,10.6038991 10.2660436,11.0213914 C10.2660436,11.4388837 10.6038991,11.7767393 11.0213914,11.7767393 C11.4388837,11.7767393 11.7767393,11.4388837 11.7767393,11.0213914 Z" id="path-1"></path>
    </defs>
    <g id="Symbols" stroke="none" stroke-width="1" fill="none" fill-rule="evenodd">
        <g id="icon/16px/preferences">
            <mask id="mask-2" fill="white">
                <use xlink:href="#path-1"></use>
            </mask>
            <use id="Combined-Shape" fill="#42526E" xlink:href="#path-1"></use>
        </g>
    </g>
</svg>