<?xml version="1.0" encoding="UTF-8"?>
<svg width="16px" height="16px" viewBox="0 0 16 16" version="1.1" xmlns="http://www.w3.org/2000/svg" xmlns:xlink="http://www.w3.org/1999/xlink">
    <!-- Generator: Sketch 48.2 (47327) - http://www.bohemiancoding.com/sketch -->
    <title>bamboo/16px/queued-build-16px</title>
    <desc>Created with Sketch.</desc>
    <defs>
        <path d="M6,8 C6,8.552 5.552,9 5,9 C4.448,9 4,8.552 4,8 C4,7.448 4.448,7 5,7 C5.552,7 6,7.448 6,8 M12,8 C12,8.552 11.552,9 11,9 C10.448,9 10,8.552 10,8 C10,7.448 10.448,7 11,7 C11.552,7 12,7.448 12,8 M9,8 C9,8.552 8.552,9 8,9 C7.448,9 7,8.552 7,8 C7,7.448 7.448,7 8,7 C8.552,7 9,7.448 9,8 M8,13.6 C4.9123,13.6 2.4,11.0877 2.4,8 C2.4,4.9123 4.9123,2.4 8,2.4 C11.0877,2.4 13.6,4.9123 13.6,8 C13.6,11.0877 11.0877,13.6 8,13.6 M8,1 C4.1339,1 1,4.1339 1,8 C1,11.8661 4.1339,15 8,15 C11.8661,15 15,11.8661 15,8 C15,4.1339 11.8661,1 8,1" id="path-1"></path>
    </defs>
    <g id="Symbols" stroke="none" stroke-width="1" fill="none" fill-rule="evenodd">
        <g id="bamboo/16px/queued-build">
            <mask id="mask-2" fill="white">
                <use xlink:href="#path-1"></use>
            </mask>
            <use id="queued-build" fill="#172B4D" xlink:href="#path-1"></use>
        </g>
    </g>
</svg>