<?xml version="1.0" encoding="UTF-8"?>
<svg width="16px" height="16px" viewBox="0 0 16 16" version="1.1" xmlns="http://www.w3.org/2000/svg" xmlns:xlink="http://www.w3.org/1999/xlink">
    <!-- Generator: Sketch 48.2 (47327) - http://www.bohemiancoding.com/sketch -->
    <title>confluence/16px/text-color</title>
    <desc>Created with Sketch.</desc>
    <defs></defs>
    <g id="Editor-icons---v2" stroke="none" stroke-width="1" fill="none" fill-rule="evenodd">
        <g id="confluence/16px/text-color" fill="#42526E">
            <path d="M10,9.5 L6,9.5 L5,12 L3,12 L6.81443299,2 L9.18556701,2 L13,12 L11,12 L10,9.5 Z M9.5,7.99999987 L8,3.5 C7.57290133,4.89911635 6.5,7.99999987 6.5,7.99999987 L9.5,7.99999987 Z" id="Shape"></path>
        </g>
    </g>
</svg>