<?xml version="1.0" encoding="UTF-8"?>
<svg width="16px" height="16px" viewBox="0 0 16 16" version="1.1" xmlns="http://www.w3.org/2000/svg" xmlns:xlink="http://www.w3.org/1999/xlink">
    <!-- Generator: Sketch 48.2 (47327) - http://www.bohemiancoding.com/sketch -->
    <title>icon/16px/undo-16px</title>
    <desc>Created with Sketch.</desc>
    <defs>
        <path d="M2.96858085,7.40379295 C4.30807548,6.12867011 6.13848299,5.375 8.1049835,5.375 C10.9485332,5.375 13.4961717,6.95175 14.6964508,9.372875 C14.9126937,9.810375 14.7192132,10.331 14.2648406,10.53925 C13.8095925,10.746625 13.2650457,10.561125 13.0496783,10.125375 C12.1488124,8.307125 10.2385213,7.125 8.1049835,7.125 C6.5157494,7.125 5.04618679,7.78030765 4.0266579,8.875 L5.59063487,8.875 C6.0756492,8.875 6.46786295,9.267 6.46786295,9.75 C6.46786295,10.233 6.0756492,10.625 5.59063487,10.625 L2.17977595,10.625 C1.64748586,10.625 1.21500015,10.193625 1.21500015,9.6625 L1.21500015,6.25 C1.21500015,5.767 1.60808939,5.375 2.09222824,5.375 C2.5763671,5.375 2.96858085,5.767 2.96858085,6.25 L2.96858085,7.40379295 Z" id="path-1"></path>
    </defs>
    <g id="Symbols" stroke="none" stroke-width="1" fill="none" fill-rule="evenodd">
        <g id="icon/16px/undo">
            <mask id="mask-2" fill="white">
                <use xlink:href="#path-1"></use>
            </mask>
            <use id="undo-small" fill="#42526E" xlink:href="#path-1"></use>
        </g>
    </g>
</svg>