<?xml version="1.0" encoding="UTF-8"?>
<svg width="16px" height="16px" viewBox="0 0 16 16" version="1.1" xmlns="http://www.w3.org/2000/svg" xmlns:xlink="http://www.w3.org/1999/xlink">
    <!-- Generator: Sketch 48.2 (47327) - http://www.bohemiancoding.com/sketch -->
    <title>icon/16px/video-filled-16px</title>
    <desc>Created with Sketch.</desc>
    <defs>
        <path d="M14.1510275,4.58214733 C14.5091898,4.58214733 14.8352269,4.85195622 14.8352269,5.22519185 L14.8352269,10.7742613 C14.8352269,11.147497 14.5091898,11.4173059 14.1510275,11.4173059 C14.044399,11.4173059 13.934353,11.393537 13.8297751,11.34086 L11.4176476,10.1305744 L11.4176476,5.86309715 L13.8311421,4.65795078 C13.9350365,4.60591621 14.044399,4.58214733 14.1510275,4.58214733 Z M2.53082908,3.89890489 L9.36793911,3.89890489 C10.122685,3.89890489 10.7339951,4.51146833 10.7339951,5.26776173 L10.7339951,10.7322383 C10.7339951,11.4885317 10.122685,12.1010951 9.36793911,12.1010951 L2.53082908,12.1010951 C1.77608316,12.1010951 1.16477313,11.4885317 1.16477313,10.7322383 L1.16477313,5.26776173 C1.16477313,4.51146833 1.77608316,3.89890489 2.53082908,3.89890489 Z" id="path-1"></path>
    </defs>
    <g id="Symbols" stroke="none" stroke-width="1" fill="none" fill-rule="evenodd">
        <g id="icon/16px/video-filled">
            <mask id="mask-2" fill="white">
                <use xlink:href="#path-1"></use>
            </mask>
            <use id="Combined-Shape" fill="#42526E" xlink:href="#path-1"></use>
        </g>
    </g>
</svg>