<?xml version="1.0" encoding="UTF-8"?>
<svg width="24px" height="24px" viewBox="0 0 24 24" version="1.1" xmlns="http://www.w3.org/2000/svg" xmlns:xlink="http://www.w3.org/1999/xlink">
    <!-- Generator: Sketch 48.1 (47250) - http://www.bohemiancoding.com/sketch -->
    <title>icon/20px/chevron-double-right</title>
    <desc>Created with Sketch.</desc>
    <defs>
        <path d="M18.7059,11.2871 L13.7209,6.2951 C13.3269,5.9011 12.6889,5.9011 12.2959,6.2951 C11.9019,6.6891 11.9019,7.3281 12.2959,7.7221 L16.5689,12.0001 L12.2959,16.2781 C11.9019,16.6721 11.9019,17.3101 12.2959,17.7041 C12.6889,18.0991 13.3269,18.0991 13.7209,17.7041 L18.7059,12.7131 C19.0999,12.3191 19.0999,11.6811 18.7059,11.2871 M11.7059,12.7131 L6.7209,17.7041 C6.3269,18.0991 5.6889,18.0991 5.2959,17.7041 C4.9019,17.3101 4.9019,16.6721 5.2959,16.2781 L9.5689,12.0001 L5.2959,7.7221 C4.9019,7.3281 4.9019,6.6891 5.2959,6.2951 C5.6889,5.9011 6.3269,5.9011 6.7209,6.2951 L11.7059,11.2871 C12.0999,11.6811 12.0999,12.3191 11.7059,12.7131" id="path-1"></path>
    </defs>
    <g id="Symbols" stroke="none" stroke-width="1" fill="none" fill-rule="evenodd">
        <g id="icon/20px/chevron-double-right">
            <mask id="mask-2" fill="white">
                <use xlink:href="#path-1"></use>
            </mask>
            <use id="chevron-double-right" fill="#42526E" xlink:href="#path-1"></use>
        </g>
    </g>
</svg>