<?xml version="1.0" encoding="UTF-8"?>
<svg width="24px" height="24px" viewBox="0 0 24 24" version="1.1" xmlns="http://www.w3.org/2000/svg" xmlns:xlink="http://www.w3.org/1999/xlink">
    <!-- Generator: Sketch 48.1 (47250) - http://www.bohemiancoding.com/sketch -->
    <title>icon/20px/followers</title>
    <desc>Created with Sketch.</desc>
    <defs>
        <path d="M3.99973116,14.0001103 C3.99973116,12.8954799 4.90168152,12 6.00826136,12 L13.991201,12 C15.1004816,12 15.9997312,12.8938878 15.9997312,14.006104 L15.9997312,18.4460997 C15.9997312,21.8513001 3.99973116,21.8513001 3.99973116,18.4460997 C3.99973116,21.8513001 3.99973116,14.0001103 3.99973116,14.0001103 Z M9.99973116,11 C7.79059216,11 5.99973116,9.209139 5.99973116,7 C5.99973116,4.790861 7.79059216,3 9.99973116,3 C12.2088702,3 13.9997312,4.790861 13.9997312,7 C13.9997312,9.209139 12.2088702,11 9.99973116,11 Z M16.2926244,9.29289322 L17.5855176,8 L16.2926244,6.70710678 C15.9021001,6.31658249 15.9021001,5.68341751 16.2926244,5.29289322 C16.6831487,4.90236893 17.3163136,4.90236893 17.7068379,5.29289322 L19.7026843,7.28873956 C20.1034051,7.68946043 20.0955026,8.31844215 19.7026843,8.71126044 L17.7068379,10.7071068 C17.3163136,11.0976311 16.6831487,11.0976311 16.2926244,10.7071068 C15.9021001,10.3165825 15.9021001,9.68341751 16.2926244,9.29289322 Z" id="path-1"></path>
    </defs>
    <g id="Symbols" stroke="none" stroke-width="1" fill="none" fill-rule="evenodd">
        <g id="icon/20px/followers">
            <mask id="mask-2" fill="white">
                <use xlink:href="#path-1"></use>
            </mask>
            <use id="Combined-Shape" fill="#15294F" xlink:href="#path-1"></use>
        </g>
    </g>
</svg>