<?xml version="1.0" encoding="UTF-8"?>
<svg width="24px" height="24px" viewBox="0 0 24 24" version="1.1" xmlns="http://www.w3.org/2000/svg" xmlns:xlink="http://www.w3.org/1999/xlink">
    <!-- Generator: Sketch 48.1 (47250) - http://www.bohemiancoding.com/sketch -->
    <title>icon/20px/location</title>
    <desc>Created with Sketch.</desc>
    <defs>
        <path d="M12,20.9999801 C9.71981408,20.9999801 6,12.3137284 6,9.00001988 C6,5.68631138 8.6862915,3.00001988 12,3.00001988 C15.3137085,3.00001988 18,5.68631138 18,9.00001988 C18,12.3137284 14.2801859,20.9999801 12,20.9999801 Z M12,12.0000199 C13.6081232,12.0000199 14.9117647,10.6963784 14.9117647,9.08825517 C14.9117647,7.48013193 13.6081232,6.17649047 12,6.17649047 C10.3918768,6.17649047 9.08823529,7.48013193 9.08823529,9.08825517 C9.08823529,10.6963784 10.3918768,12.0000199 12,12.0000199 Z" id="path-1"></path>
    </defs>
    <g id="Symbols" stroke="none" stroke-width="1" fill="none" fill-rule="evenodd">
        <g id="icon/20px/location">
            <mask id="mask-2" fill="white">
                <use xlink:href="#path-1"></use>
            </mask>
            <use id="Oval-2" fill="#42526E" xlink:href="#path-1"></use>
        </g>
    </g>
</svg>