<?xml version="1.0" encoding="UTF-8"?>
<svg width="24px" height="24px" viewBox="0 0 24 24" version="1.1" xmlns="http://www.w3.org/2000/svg" xmlns:xlink="http://www.w3.org/1999/xlink">
    <!-- Generator: Sketch 48.1 (47250) - http://www.bohemiancoding.com/sketch -->
    <title>bamboo/20px/queued-build</title>
    <desc>Created with Sketch.</desc>
    <defs>
        <path d="M10,12 C10,12.552 9.552,13 9,13 C8.448,13 8,12.552 8,12 C8,11.448 8.448,11 9,11 C9.552,11 10,11.448 10,12 M16,12 C16,12.552 15.552,13 15,13 C14.448,13 14,12.552 14,12 C14,11.448 14.448,11 15,11 C15.552,11 16,11.448 16,12 M13,12 C13,12.552 12.552,13 12,13 C11.448,13 11,12.552 11,12 C11,11.448 11.448,11 12,11 C12.552,11 13,11.448 13,12 M12,18 C8.691,18 6,15.309 6,12 C6,8.691 8.691,6 12,6 C15.309,6 18,8.691 18,12 C18,15.309 15.309,18 12,18 M12,4 C7.582,4 4,7.582 4,12 C4,16.418 7.582,20 12,20 C16.418,20 20,16.418 20,12 C20,7.582 16.418,4 12,4" id="path-1"></path>
    </defs>
    <g id="Symbols" stroke="none" stroke-width="1" fill="none" fill-rule="evenodd">
        <g id="bamboo/20px/queued-build">
            <mask id="mask-2" fill="white">
                <use xlink:href="#path-1"></use>
            </mask>
            <use id="queued-build" fill="#172B4D" xlink:href="#path-1"></use>
        </g>
    </g>
</svg>