<?xml version="1.0" encoding="UTF-8"?>
<svg width="24px" height="24px" viewBox="0 0 24 24" version="1.1" xmlns="http://www.w3.org/2000/svg" xmlns:xlink="http://www.w3.org/1999/xlink">
    <!-- Generator: Sketch 48.1 (47250) - http://www.bohemiancoding.com/sketch -->
    <title>icon/20px/recent-filled</title>
    <desc>Created with Sketch.</desc>
    <defs>
        <path d="M3,12 C3,7.0293 7.0293,3 12,3 C16.9707,3 21,7.0293 21,12 C21,16.9707 16.9707,21 12,21 C7.0293,21 3,16.9707 3,12 Z M13.771,15.186 C13.965,15.38 14.221,15.477 14.478,15.477 C14.734,15.477 14.99,15.38 15.185,15.186 C15.574,14.796 15.574,14.161 15.185,13.772 L13,11.587 L13,8.005 L13,8.003 L13,8 L13,7 C13,6.448 12.552,6 12,6 C11.448,6 11,6.448 11,7 L11,8 L11,8.003 L11,8.005 L11,12.004 C11,12.283 11.117,12.534 11.301,12.716 L13.771,15.186 Z" id="path-1"></path>
    </defs>
    <g id="Symbols" stroke="none" stroke-width="1" fill="none" fill-rule="evenodd">
        <g id="icon/20px/recent-filled">
            <mask id="mask-2" fill="white">
                <use xlink:href="#path-1"></use>
            </mask>
            <use id="recent-filled" fill="#3F4F71" xlink:href="#path-1"></use>
        </g>
    </g>
</svg>