<?xml version="1.0" encoding="UTF-8"?>
<svg width="24px" height="24px" viewBox="0 0 24 24" version="1.1" xmlns="http://www.w3.org/2000/svg" xmlns:xlink="http://www.w3.org/1999/xlink">
    <!-- Generator: Sketch 48.1 (47250) - http://www.bohemiancoding.com/sketch -->
    <title>icon/20px/shortcut</title>
    <desc>Created with Sketch.</desc>
    <defs>
        <path d="M17.0857864,5 L15.5,5 C14.9477153,5 14.5,4.55228475 14.5,4 C14.5,3.44771525 14.9477153,3 15.5,3 L19.5,3 C20.0522847,3 20.5,3.44771525 20.5,4 L20.5,8 C20.5,8.55228475 20.0522847,9 19.5,9 C18.9477153,9 18.5,8.55228475 18.5,8 L18.5,6.41421356 L12.2071068,12.7071068 C11.8165825,13.0976311 11.1834175,13.0976311 10.7928932,12.7071068 C10.4023689,12.3165825 10.4023689,11.6834175 10.7928932,11.2928932 L17.0857864,5 Z M18.5,19 L18.5,13 L20.5,13 L20.5,19.0020869 C20.5,20.1055038 19.6073772,21 18.5049107,21 L4.49508929,21 C3.3932319,21 2.5,20.1054862 2.5,19.0059397 L2.5,4.99406028 C2.5,3.8927712 3.39585781,3 4.4973917,3 L10.5,3 L10.5,5 L4.5,5 L4.5,19 L18.5,19 Z" id="path-1"></path>
    </defs>
    <g id="Symbols" stroke="none" stroke-width="1" fill="none" fill-rule="evenodd">
        <g id="icon/20px/shortcut">
            <mask id="mask-2" fill="white">
                <use xlink:href="#path-1"></use>
            </mask>
            <use id="Shortcut" fill="#3F4F71" fill-rule="nonzero" xlink:href="#path-1"></use>
        </g>
    </g>
</svg>