<?xml version="1.0" encoding="UTF-8"?>
<svg width="24px" height="24px" viewBox="0 0 24 24" version="1.1" xmlns="http://www.w3.org/2000/svg" xmlns:xlink="http://www.w3.org/1999/xlink">
    <!-- Generator: Sketch 48.1 (47250) - http://www.bohemiancoding.com/sketch -->
    <title>icon/20px/sign-in</title>
    <desc>Created with Sketch.</desc>
    <defs>
        <path d="M13.5090212,11 L12.303,9.783 C11.899,9.375 11.899,8.714 12.303,8.305 C12.505,8.102 12.77,8 13.035,8 C13.3,8 13.565,8.102 13.768,8.305 L16.698,11.261 C17.1,11.669 17.1,12.33 16.698,12.738 L13.768,15.693 C13.363,16.102 12.707,16.102 12.303,15.693 C11.899,15.286 11.899,14.624 12.303,14.217 L13.5090212,13 L3.977,13 C3.437,13 3,12.552 3,12.001 C3,11.449 3.437,11 3.977,11 L13.5090212,11 Z M15.503,3 L19.006,3 C20.108,3 21,3.892 21,4.995 L21,19.005 C21,20.107 20.106,21 19.006,21 L15.503,21 L12,21 L12,19 L19,19 L19,5 L12,5 L12,3 L15.503,3 Z" id="path-1"></path>
    </defs>
    <g id="Symbols" stroke="none" stroke-width="1" fill="none" fill-rule="evenodd">
        <g id="icon/20px/sign-in">
            <mask id="mask-2" fill="white">
                <use xlink:href="#path-1"></use>
            </mask>
            <use id="Combined-Shape" fill="#42526E" xlink:href="#path-1"></use>
        </g>
    </g>
</svg>