<?xml version="1.0" encoding="UTF-8"?>
<svg width="24px" height="24px" viewBox="0 0 24 24" version="1.1" xmlns="http://www.w3.org/2000/svg" xmlns:xlink="http://www.w3.org/1999/xlink">
    <!-- Generator: Sketch 48.1 (47250) - http://www.bohemiancoding.com/sketch -->
    <title>icon/20px/swap</title>
    <desc>Created with Sketch.</desc>
    <defs>
        <path d="M4.294,9.6855 C4.098,9.4905 4,9.2345 4,8.9785 C4,8.7225 4.098,8.4665 4.294,8.2705 L7.289,5.2925 C7.683,4.9025 8.319,4.9025 8.711,5.2925 L11.706,8.2705 C11.901,8.4675 12,8.7225 12,8.9795 C12,9.2335 11.901,9.4895 11.706,9.6855 C11.312,10.0755 10.677,10.0755 10.284,9.6855 L9.005,8.4145 L9.005,9.7115 L9.005,11.6225 L9.005,15.9995 C9.005,16.5525 8.555,17.0005 8,17.0005 C7.445,17.0005 6.995,16.5525 6.995,15.9995 L6.995,11.6225 L6.995,9.7115 L6.995,8.4145 L5.716,9.6855 C5.323,10.0755 4.687,10.0755 4.294,9.6855 Z M19.706,14.315 C19.902,14.51 20,14.766 20,15.022 C20,15.278 19.902,15.534 19.706,15.73 L16.711,18.708 C16.317,19.098 15.681,19.098 15.289,18.708 L12.294,15.73 C12.099,15.533 12,15.278 12,15.021 C12,14.767 12.099,14.511 12.294,14.315 C12.688,13.925 13.323,13.925 13.716,14.315 L14.995,15.586 L14.995,14.289 L14.995,12.378 L14.995,8.001 C14.995,7.448 15.445,7 16,7 C16.555,7 17.005,7.448 17.005,8.001 L17.005,12.378 L17.005,14.289 L17.005,15.586 L18.284,14.315 C18.677,13.925 19.313,13.925 19.706,14.315 Z" id="path-1"></path>
    </defs>
    <g id="Symbols" stroke="none" stroke-width="1" fill="none" fill-rule="evenodd">
        <g id="icon/20px/swap">
            <mask id="mask-2" fill="white">
                <use xlink:href="#path-1"></use>
            </mask>
            <use id="switch" fill="#3F4F71" xlink:href="#path-1"></use>
        </g>
    </g>
</svg>