<?xml version="1.0" encoding="UTF-8"?>
<svg width="24px" height="24px" viewBox="0 0 24 24" version="1.1" xmlns="http://www.w3.org/2000/svg" xmlns:xlink="http://www.w3.org/1999/xlink">
    <!-- Generator: Sketch 48.1 (47250) - http://www.bohemiancoding.com/sketch -->
    <title>icon/20px/unlock</title>
    <desc>Created with Sketch.</desc>
    <defs>
        <path d="M8,11.5 L8,6.50236948 C8,4.29192185 9.79535615,2.5 12,2.5 C14.209139,2.5 16,4.29182182 16,6.50236948 L16,7 L14,7 L14,6.50236948 C14,5.39616855 13.1043465,4.5 12,4.5 C10.8982909,4.5 10,5.39812584 10,6.50236948 L10,11.5 L8,11.5 Z M14,7 L16,7 C16,7.55228475 15.5522847,8 15,8 C14.4477153,8 14,7.55228475 14,7 Z M5,11.5085302 C5,10.3992496 5.89706013,9.5 7.00585866,9.5 L16.9941413,9.5 C18.1019465,9.5 19,10.4019504 19,11.5085302 L19,19.4914698 C19,20.6007504 18.1029399,21.5 16.9941413,21.5 L7.00585866,21.5 C5.89805351,21.5 5,20.5980496 5,19.4914698 L5,11.5085302 Z M7,11.5 L7,19.5 L17,19.5 L17,11.5 L7,11.5 Z M12,17.5 C10.8954305,17.5 10,16.6045695 10,15.5 C10,14.3954305 10.8954305,13.5 12,13.5 C13.1045695,13.5 14,14.3954305 14,15.5 C14,16.6045695 13.1045695,17.5 12,17.5 Z" id="path-1"></path>
    </defs>
    <g id="Symbols" stroke="none" stroke-width="1" fill="none" fill-rule="evenodd">
        <g id="icon/20px/unlock">
            <mask id="mask-2" fill="white">
                <use xlink:href="#path-1"></use>
            </mask>
            <use id="unlock" fill="#42526E" fill-rule="nonzero" xlink:href="#path-1"></use>
        </g>
    </g>
</svg>