<?xml version="1.0" encoding="UTF-8"?>
<svg width="24px" height="24px" viewBox="0 0 24 24" version="1.1" xmlns="http://www.w3.org/2000/svg" xmlns:xlink="http://www.w3.org/1999/xlink">
    <!-- Generator: Sketch 48.1 (47250) - http://www.bohemiancoding.com/sketch -->
    <title>icon/20px/video-filled</title>
    <desc>Created with Sketch.</desc>
    <defs>
        <path d="M20.999,6.9996 C21.523,6.9996 22,7.39433684 22,7.94038947 L22,16.0588105 C22,16.6048632 21.523,16.9996 20.999,16.9996 C20.843,16.9996 20.682,16.9648256 20.529,16.8877579 L17,15.1170812 L17,8.87366015 L20.531,7.11050226 C20.683,7.03437444 20.843,6.9996 20.999,6.9996 Z M3.99837245,6 L14.0012276,6 C15.1054388,6 15.9998,6.89619493 15.9998,8.00267023 L15.9998,15.9973298 C15.9998,17.1038051 15.1054388,18 14.0012276,18 L3.99837245,18 C2.89416117,18 1.9998,17.1038051 1.9998,15.9973298 L1.9998,8.00267023 C1.9998,6.89619493 2.89416117,6 3.99837245,6 Z" id="path-1"></path>
    </defs>
    <g id="Symbols" stroke="none" stroke-width="1" fill="none" fill-rule="evenodd">
        <g id="icon/20px/video-filled">
            <mask id="mask-2" fill="white">
                <use xlink:href="#path-1"></use>
            </mask>
            <use id="Combined-Shape" fill="#42526E" xlink:href="#path-1"></use>
        </g>
    </g>
</svg>