<?xml version="1.0" encoding="UTF-8"?>
<svg width="24px" height="24px" viewBox="0 0 24 24" version="1.1" xmlns="http://www.w3.org/2000/svg" xmlns:xlink="http://www.w3.org/1999/xlink">
    <!-- Generator: Sketch 48.1 (47250) - http://www.bohemiancoding.com/sketch -->
    <title>icon/20px/watch</title>
    <desc>Created with Sketch.</desc>
    <defs>
        <path d="M12.0005003,4 C17.5210887,4 22,8.841 22,12 C22,15.086 17.4240256,20 12.0005003,20 C6.57697503,20 2,15.086 2,12 C2,8.841 6.47991194,4 12.0005003,4 Z M12.0005003,18 C16.5364487,18 19.9986992,13.74 19.9986992,12 C19.9986992,9.973 16.3773453,6 12.0005003,6 C7.45954871,6 4.00130085,9.999 4.00130085,12 C4.00130085,13.74 7.46355131,18 12.0005003,18 Z M12,7.9844 C14.206,7.9844 16,9.7784 16,11.9844 C16,14.1904 14.206,15.9844 12,15.9844 C9.794,15.9844 8,14.1904 8,11.9844 C8,9.7784 9.794,7.9844 12,7.9844 Z M12,13.9844 C13.103,13.9844 14,13.0874 14,11.9844 C14,10.8814 13.103,9.9844 12,9.9844 C10.897,9.9844 10,10.8814 10,11.9844 C10,13.0874 10.897,13.9844 12,13.9844 Z" id="path-1"></path>
    </defs>
    <g id="Symbols" stroke="none" stroke-width="1" fill="none" fill-rule="evenodd">
        <g id="icon/20px/watch">
            <mask id="mask-2" fill="white">
                <use xlink:href="#path-1"></use>
            </mask>
            <use id="watch" fill="#42526E" xlink:href="#path-1"></use>
        </g>
    </g>
</svg>